mimetic_sim.vcd
$date
	Mon Feb 16 21:36:53 2026
$end
$version
	Icarus Verilog
$end
$timescale
	1ps
$end
$scope module tb_mimetic_top $end
$var wire 1 ! dac_sclk $end
$var wire 1 " dac_mosi $end
$var wire 1 # dac_cs_n $end
$var reg 1 $ clk $end
$var reg 1 % enable_mimetic $end
$var reg 1 & rst_n $end
$scope module uut $end
$var wire 1 $ clk $end
$var wire 1 % enable_mimetic $end
$var wire 1 & rst_n $end
$var wire 1 ' w_tx_done $end
$var wire 12 ( w_sphyspi [11:0] $end
$var wire 12 ) w_hphyspi [11:0] $end
$var wire 1 ! dac_sclk $end
$var wire 1 " dac_mosi $end
$var wire 1 # dac_cs_n $end
$var reg 1 * r_start_tx $end
$scope module u_spi_tx $end
$var wire 1 $ clk $end
$var wire 1 & rst_n $end
$var wire 1 * start_tx $end
$var wire 12 + wave_data [11:0] $end
$var parameter 4 , DAC_CONFIG_BITS $end
$var parameter 2 - STATE_DONE $end
$var parameter 2 . STATE_IDLE $end
$var parameter 2 / STATE_TX $end
$var reg 5 0 bit_counter [4:0] $end
$var reg 1 # cs_n $end
$var reg 1 " mosi $end
$var reg 1 ! sclk $end
$var reg 16 1 shift_register [15:0] $end
$var reg 2 2 state [1:0] $end
$var reg 1 ' tx_done $end
$upscope $end
$scope module u_wave_gen $end
$var wire 1 $ clk $end
$var wire 1 3 reset $end
$var parameter 24 4 FREQ_H $end
$var parameter 24 5 FREQ_S $end
$var reg 12 6 hphyspi [11:0] $end
$var reg 24 7 phase_acc_h [23:0] $end
$var reg 24 8 phase_acc_s [23:0] $end
$var reg 12 9 sphyspi [11:0] $end
$upscope $end
$upscope $end
$upscope $end
$enddefinitions $end
$comment Show the parameter values. $end
$dumpall
b11001100110011001100 5
b1100110011001100110 4
b1 /
b0 .
b10 -
b11 ,
$end
#0
$dumpvars
bx 9
bx 8
bx 7
bx 6
13
b0 2
b0 1
b1111 0
bx +
0*
bx )
bx (
0'
0&
0%
0$
1#
0"
0!
$end
#10000
b0 (
b0 9
b0 )
b0 +
b0 6
b0 8
b0 7
1$
#20000
0$
#30000
1$
#40000
0$
#50000
1$
#60000
0$
#70000
1$
#80000
0$
#90000
1$
#100000
03
0$
1&
#110000
b11111111111 (
b11111111111 9
b11111111111 )
b11111111111 +
b11111111111 6
b11001100110011001100 8
b1100110011001100110 7
1$
#120000
0$
#130000
b110101000000 (
b110101000000 9
b101011010100 )
b101011010100 +
b101011010100 6
b110011001100110011000 8
b11001100110011001100 7
1$
#140000
0$
#150000
1*
b111111100110 (
b111111100110 9
b110101000000 )
b110101000000 +
b110101000000 6
b1001100110011001100100 8
b100110011001100110010 7
1$
1%
#160000
0$
#170000
0*
b1 2
0#
b11110101000000 1
b111101111001 (
b111101111001 9
b111100101000 )
b111100101000 +
b111100101000 6
b1100110011001100110000 8
b110011001100110011000 7
1$
#180000
0$
#190000
1!
1*
b111010011001 (
b111010011001 9
b111111100110 )
b111111100110 +
b111111100110 6
b1111111111111111111100 8
b111111111111111111110 7
1$
#200000
0$
#210000
0*
b1110 0
0!
b111010001100 (
b111010001100 9
b111111110001 )
b111111110001 +
b111111110001 6
b10011001100110011001000 8
b1001100110011001100100 7
1$
#220000
0$
#230000
1!
1*
b110111101101 (
b110111101101 9
b111101111001 )
b111101111001 +
b111101111001 6
b10110011001100110010100 8
b1011001100110011001010 7
1$
#240000
0$
#250000
0*
b1101 0
0!
b101100110111 (
b101100110111 9
b111011111001 )
b111011111001 +
b111011111001 6
b11001100110011001100000 8
b1100110011001100110000 7
1$
#260000
0$
#270000
1"
1!
1*
b11111000101 (
b11111000101 9
b111010011001 )
b111010011001 +
b111010011001 6
b11100110011001100101100 8
b1110011001100110010110 7
1$
#280000
0$
#290000
0*
b1100 0
0!
b11010001011 (
b11010001011 9
b111010000100 )
b111010000100 +
b111010000100 6
b11111111111111111111000 8
b1111111111111111111100 7
1$
#300000
0$
#310000
1!
1*
b11111101010 (
b11111101010 9
b111010001100 )
b111010001100 +
b111010001100 6
b100011001100110011000100 8
b10001100110011001100010 7
1$
#320000
0$
#330000
0*
b1011 0
0!
b100101110011 (
b100101110011 9
b111001101101 )
b111001101101 +
b111001101101 6
b100110011001100110010000 8
b10011001100110011001000 7
1$
#340000
0$
#350000
1!
1*
b100000111001 (
b100000111001 9
b110111101101 )
b110111101101 +
b110111101101 6
b101001100110011001011100 8
b10100110011001100101110 7
1$
#360000
0$
#370000
0*
b1010 0
0!
b10011000111 (
b10011000111 9
b110010110111 )
b110010110111 +
b110010110111 6
b101100110011001100101000 8
b10110011001100110010100 7
1$
#380000
0$
#390000
1!
1*
b1000010001 (
b1000010001 9
b101100110111 )
b101100110111 +
b101100110111 6
b101111111111111111110100 8
b10111111111111111111010 7
1$
#400000
0$
#410000
0*
b1001 0
0!
b101110010 (
b101110010 9
b100110000111 )
b100110000111 +
b100110000111 6
b110011001100110011000000 8
b11001100110011001100000 7
1$
#420000
0$
#430000
0"
1!
1*
b101100101 (
b101100101 9
b11111000101 )
b11111000101 +
b11111000101 6
b110110011001100110001100 8
b11011001100110011000110 7
1$
#440000
0$
#450000
0*
b1000 0
0!
b10000101 (
b10000101 9
b11011001101 )
b11011001101 +
b11011001101 6
b111001100110011001011000 8
b11100110011001100101100 7
1$
#460000
0$
#470000
1"
1!
1*
b11000 (
b11000 9
b11010001011 )
b11010001011 +
b11010001011 6
b111100110011001100100100 8
b11110011001100110010010 7
1$
#480000
0$
#490000
0*
b111 0
0!
b1010111110 (
b1010111110 9
b11100001000 )
b11100001000 +
b11100001000 6
b111111111111111111110000 8
b11111111111111111111000 7
1$
#500000
0$
#510000
0"
1!
1*
b11111111111 (
b11111111111 9
b11111101010 )
b11111101010 +
b11111101010 6
b11001100110010111100 8
b100001100110011001011110 7
1$
#520000
0$
#530000
0*
b110 0
0!
b110101000000 (
b110101000000 9
b100011110110 )
b100011110110 +
b100011110110 6
b110011001100110001000 8
b100011001100110011000100 7
1$
#540000
0$
#550000
1"
1!
1*
b111111100110 (
b111111100110 9
b100101110011 )
b100101110011 +
b100101110011 6
b1001100110011001010100 8
b100100110011001100101010 7
1$
#560000
0$
#570000
0*
b101 0
0!
b111101111001 (
b111101111001 9
b100100110001 )
b100100110001 +
b100100110001 6
b1100110011001100100000 8
b100110011001100110010000 7
1$
#580000
0$
#590000
0"
1!
1*
b111010011001 (
b111010011001 9
b100000111001 )
b100000111001 +
b100000111001 6
b1111111111111111101100 8
b100111111111111111110110 7
1$
#600000
0$
#610000
0*
b100 0
0!
b111010001100 (
b111010001100 9
b11010111110 )
b11010111110 +
b11010111110 6
b10011001100110010111000 8
b101001100110011001011100 7
1$
#620000
0$
#630000
1!
1*
b110111101101 (
b110111101101 9
b10011000111 )
b10011000111 +
b10011000111 6
b10110011001100110000100 8
b101011001100110011000010 7
1$
#640000
0$
#650000
0*
b11 0
0!
b101100110111 (
b101100110111 9
b1101000111 )
b1101000111 +
b1101000111 6
b11001100110011001010000 8
b101100110011001100101000 7
1$
#660000
0$
#670000
1!
1*
b11111000101 (
b11111000101 9
b1000010001 )
b1000010001 +
b1000010001 6
b11100110011001100011100 8
b101110011001100110001110 7
1$
#680000
0$
#690000
0*
b10 0
0!
b11010001011 (
b11010001011 9
b110010001 )
b110010001 +
b110010001 6
b11111111111111111101000 8
b101111111111111111110100 7
1$
#700000
0$
#710000
1!
1*
b11111101010 (
b11111101010 9
b101110010 )
b101110010 +
b101110010 6
b100011001100110010110100 8
b110001100110011001011010 7
1$
#720000
0$
#730000
0*
b1 0
0!
b100101110011 (
b100101110011 9
b101111010 )
b101111010 +
b101111010 6
b100110011001100110000000 8
b110011001100110011000000 7
1$
#740000
0$
#750000
1!
1*
b100000111001 (
b100000111001 9
b101100101 )
b101100101 +
b101100101 6
b101001100110011001001100 8
b110100110011001100100110 7
1$
#760000
0$
#770000
0*
b0 0
0!
b10011000111 (
b10011000111 9
b100000101 )
b100000101 +
b100000101 6
b101100110011001100011000 8
b110110011001100110001100 7
1$
#780000
0$
#790000
1!
1*
b1000010001 (
b1000010001 9
b10000101 )
b10000101 +
b10000101 6
b101111111111111111100100 8
b110111111111111111110010 7
1$
#800000
0$
#810000
0*
b10 2
0!
b101110010 (
b101110010 9
b11000 )
b11000 +
b11000 6
b110011001100110010110000 8
b111001100110011001011000 7
1$
#820000
0$
#830000
b0 2
1'
1#
1*
b101100101 (
b101100101 9
b110110011001100101111100 8
b111011001100110010111110 7
1$
#840000
0$
#850000
b1 2
b1111 0
0#
b11000000011000 1
0'
b10000101 (
b10000101 9
b11010110 )
b11010110 +
b11010110 6
b111001100110011001001000 8
b111100110011001100100100 7
1$
#860000
0$
#870000
1!
0*
b11000 (
b11000 9
b1010111110 )
b1010111110 +
b1010111110 6
b111100110011001100010100 8
b111110011001100110001010 7
1$
#880000
0$
#890000
1*
b1110 0
0!
b1010111110 (
b1010111110 9
b10100101010 )
b10100101010 +
b10100101010 6
b111111111111111111100000 8
b111111111111111111110000 7
1$
#900000
0$
#910000
1!
0*
b11111111111 (
b11111111111 9
b11111111111 )
b11111111111 +
b11111111111 6
b11001100110010101100 8
b1100110011001010110 7
1$
#920000
0$
#930000
1*
b1101 0
0!
b110101000000 (
b110101000000 9
b101011010100 )
b101011010100 +
b101011010100 6
b110011001100101111000 8
b11001100110010111100 7
1$
#940000
0$
#950000
1"
1!
0*
b111111100110 (
b111111100110 9
b110101000000 )
b110101000000 +
b110101000000 6
b1001100110011001000100 8
b100110011001100100010 7
1$
#960000
0$
#970000
1*
b1100 0
0!
b111101111001 (
b111101111001 9
b111100101000 )
b111100101000 +
b111100101000 6
b1100110011001100010000 8
b110011001100110001000 7
1$
#980000
0$
#990000
1!
0*
b111010011001 (
b111010011001 9
b111111100110 )
b111111100110 +
b111111100110 6
b1111111111111111011100 8
b111111111111111101110 7
1$
#1000000
0$
#1010000
1*
b1011 0
0!
b111010001100 (
b111010001100 9
b111111110001 )
b111111110001 +
b111111110001 6
b10011001100110010101000 8
b1001100110011001010100 7
1$
#1020000
0$
#1030000
0"
1!
0*
b110111101101 (
b110111101101 9
b111101111001 )
b111101111001 +
b111101111001 6
b10110011001100101110100 8
b1011001100110010111010 7
1$
#1040000
0$
#1050000
1*
b1010 0
0!
b101100110111 (
b101100110111 9
b111011111001 )
b111011111001 +
b111011111001 6
b11001100110011001000000 8
b1100110011001100100000 7
1$
#1060000
0$
#1070000
1!
0*
b11111000101 (
b11111000101 9
b111010011001 )
b111010011001 +
b111010011001 6
b11100110011001100001100 8
b1110011001100110000110 7
1$
#1080000
0$
#1090000
1*
b1001 0
0!
b11010001011 (
b11010001011 9
b111010000100 )
b111010000100 +
b111010000100 6
b11111111111111111011000 8
b1111111111111111101100 7
1$
#1100000
0$
#1110000
1!
0*
b11111101010 (
b11111101010 9
b111010001100 )
b111010001100 +
b111010001100 6
b100011001100110010100100 8
b10001100110011001010010 7
1$
#1120000
0$
#1130000
1*
b1000 0
0!
b100101110011 (
b100101110011 9
b111001101101 )
b111001101101 +
b111001101101 6
b100110011001100101110000 8
b10011001100110010111000 7
1$
#1140000
0$
#1150000
1!
0*
b100000111001 (
b100000111001 9
b110111101101 )
b110111101101 +
b110111101101 6
b101001100110011000111100 8
b10100110011001100011110 7
1$
#1160000
0$
#1170000
1*
b111 0
0!
b10011000111 (
b10011000111 9
b110010110111 )
b110010110111 +
b110010110111 6
b101100110011001100001000 8
b10110011001100110000100 7
1$
#1180000
0$
#1190000
1!
0*
b1000010001 (
b1000010001 9
b101100110111 )
b101100110111 +
b101100110111 6
b101111111111111111010100 8
b10111111111111111101010 7
1$
#1200000
0$
#1210000
1*
b110 0
0!
b101110010 (
b101110010 9
b100110000111 )
b100110000111 +
b100110000111 6
b110011001100110010100000 8
b11001100110011001010000 7
1$
#1220000
0$
#1230000
1!
0*
b101100101 (
b101100101 9
b11111000101 )
b11111000101 +
b11111000101 6
b110110011001100101101100 8
b11011001100110010110110 7
1$
#1240000
0$
#1250000
1*
b101 0
0!
b10000101 (
b10000101 9
b11011001101 )
b11011001101 +
b11011001101 6
b111001100110011000111000 8
b11100110011001100011100 7
1$
#1260000
0$
#1270000
1!
0*
b11000 (
b11000 9
b11010001011 )
b11010001011 +
b11010001011 6
b111100110011001100000100 8
b11110011001100110000010 7
1$
#1280000
0$
#1290000
1*
b100 0
0!
b1010111110 (
b1010111110 9
b11100001000 )
b11100001000 +
b11100001000 6
b111111111111111111010000 8
b11111111111111111101000 7
1$
#1300000
0$
#1310000
1"
1!
0*
b11111111111 (
b11111111111 9
b11111101010 )
b11111101010 +
b11111101010 6
b11001100110010011100 8
b100001100110011001001110 7
1$
#1320000
0$
#1330000
1*
b11 0
0!
b110101000000 (
b110101000000 9
b100011110110 )
b100011110110 +
b100011110110 6
b110011001100101101000 8
b100011001100110010110100 7
1$
#1340000
0$
#1350000
1!
0*
b111111100110 (
b111111100110 9
b100101110011 )
b100101110011 +
b100101110011 6
b1001100110011000110100 8
b100100110011001100011010 7
1$
#1360000
0$
#1370000
1*
b10 0
0!
b111101111001 (
b111101111001 9
b100100110001 )
b100100110001 +
b100100110001 6
b1100110011001100000000 8
b100110011001100110000000 7
1$
#1380000
0$
#1390000
0"
1!
0*
b111010011001 (
b111010011001 9
b100000111001 )
b100000111001 +
b100000111001 6
b1111111111111111001100 8
b100111111111111111100110 7
1$
#1400000
0$
#1410000
1*
b1 0
0!
b111010001100 (
b111010001100 9
b11010111110 )
b11010111110 +
b11010111110 6
b10011001100110010011000 8
b101001100110011001001100 7
1$
#1420000
0$
#1430000
1!
0*
b110111101101 (
b110111101101 9
b10011000111 )
b10011000111 +
b10011000111 6
b10110011001100101100100 8
b101011001100110010110010 7
1$
#1440000
0$
#1450000
1*
b0 0
0!
b101100110111 (
b101100110111 9
b1101000111 )
b1101000111 +
b1101000111 6
b11001100110011000110000 8
b101100110011001100011000 7
1$
#1460000
0$
#1470000
1!
0*
b11111000101 (
b11111000101 9
b1000010001 )
b1000010001 +
b1000010001 6
b11100110011001011111100 8
b101110011001100101111110 7
1$
#1480000
0$
#1490000
1*
b10 2
0!
b11010001011 (
b11010001011 9
b110010001 )
b110010001 +
b110010001 6
b11111111111111111001000 8
b101111111111111111100100 7
1$
#1500000
0$
#1510000
b0 2
1'
1#
0*
b11111101010 (
b11111101010 9
b101110010 )
b101110010 +
b101110010 6
b100011001100110010010100 8
b110001100110011001001010 7
1$
#1520000
0$
#1530000
1*
0'
b100101110011 (
b100101110011 9
b101111010 )
b101111010 +
b101111010 6
b100110011001100101100000 8
b110011001100110010110000 7
1$
#1540000
0$
#1550000
b1 2
b1111 0
0#
b11000101111010 1
0*
b100000111001 (
b100000111001 9
b101100101 )
b101100101 +
b101100101 6
b101001100110011000101100 8
b110100110011001100010110 7
1$
#1560000
0$
#1570000
1*
1!
b10011000111 (
b10011000111 9
b100000101 )
b100000101 +
b100000101 6
b101100110011001011111000 8
b110110011001100101111100 7
1$
#1580000
0$
#1590000
b1110 0
0!
0*
b1000010001 (
b1000010001 9
b10000101 )
b10000101 +
b10000101 6
b101111111111111111000100 8
b110111111111111111100010 7
1$
#1600000
0$
#1610000
1*
1!
b101110010 (
b101110010 9
b11000 )
b11000 +
b11000 6
b110011001100110010010000 8
b111001100110011001001000 7
1$
#1620000
0$
#1630000
b1101 0
0!
0*
b101100101 (
b101100101 9
b110110011001100101011100 8
b111011001100110010101110 7
1$
#1640000
0$
#1650000
1*
1"
1!
b10000101 (
b10000101 9
b11010110 )
b11010110 +
b11010110 6
b111001100110011000101000 8
b111100110011001100010100 7
1$
#1660000
0$
#1670000
b1100 0
0!
0*
b11000 (
b11000 9
b1010111110 )
b1010111110 +
b1010111110 6
b111100110011001011110100 8
b111110011001100101111010 7
1$
#1680000
0$
#1690000
1*
1!
b1010111110 (
b1010111110 9
b10100101010 )
b10100101010 +
b10100101010 6
b111111111111111111000000 8
b111111111111111111100000 7
1$
#1700000
0$
#1710000
b1011 0
0!
0*
b11111111111 (
b11111111111 9
b11111111111 )
b11111111111 +
b11111111111 6
b11001100110010001100 8
b1100110011001000110 7
1$
#1720000
0$
#1730000
1*
0"
1!
b110101000000 (
b110101000000 9
b101011010100 )
b101011010100 +
b101011010100 6
b110011001100101011000 8
b11001100110010101100 7
1$
#1740000
0$
#1750000
b1010 0
0!
0*
b111111100110 (
b111111100110 9
b110101000000 )
b110101000000 +
b110101000000 6
b1001100110011000100100 8
b100110011001100010010 7
1$
#1760000
0$
#1770000
1*
1!
b111101111001 (
b111101111001 9
b111100101000 )
b111100101000 +
b111100101000 6
b1100110011001011110000 8
b110011001100101111000 7
1$
#1780000
0$
#1790000
b1001 0
0!
0*
b111010011001 (
b111010011001 9
b111111100110 )
b111111100110 +
b111111100110 6
b1111111111111110111100 8
b111111111111111011110 7
1$
#1800000
0$
#1810000
1*
1!
b111010001100 (
b111010001100 9
b111111110001 )
b111111110001 +
b111111110001 6
b10011001100110010001000 8
b1001100110011001000100 7
1$
#1820000
0$
#1830000
b1000 0
0!
0*
b110111101101 (
b110111101101 9
b111101111001 )
b111101111001 +
b111101111001 6
b10110011001100101010100 8
b1011001100110010101010 7
1$
#1840000
0$
#1850000
1*
1"
1!
b101100110111 (
b101100110111 9
b111011111001 )
b111011111001 +
b111011111001 6
b11001100110011000100000 8
b1100110011001100010000 7
1$
#1860000
0$
#1870000
b111 0
0!
0*
b11111000101 (
b11111000101 9
b111010011001 )
b111010011001 +
b111010011001 6
b11100110011001011101100 8
b1110011001100101110110 7
1$
#1880000
0$
#1890000
1*
0"
1!
b11010001011 (
b11010001011 9
b111010000100 )
b111010000100 +
b111010000100 6
b11111111111111110111000 8
b1111111111111111011100 7
1$
#1900000
0$
#1910000
b110 0
0!
0*
b11111101010 (
b11111101010 9
b111010001100 )
b111010001100 +
b111010001100 6
b100011001100110010000100 8
b10001100110011001000010 7
1$
#1920000
0$
#1930000
1*
1"
1!
b100101110011 (
b100101110011 9
b111001101101 )
b111001101101 +
b111001101101 6
b100110011001100101010000 8
b10011001100110010101000 7
1$
#1940000
0$
#1950000
b101 0
0!
0*
b100000111001 (
b100000111001 9
b110111101101 )
b110111101101 +
b110111101101 6
b101001100110011000011100 8
b10100110011001100001110 7
1$
#1960000
0$
#1970000
1*
1!
b10011000111 (
b10011000111 9
b110010110111 )
b110010110111 +
b110010110111 6
b101100110011001011101000 8
b10110011001100101110100 7
1$
#1980000
0$
#1990000
b100 0
0!
0*
b1000010001 (
b1000010001 9
b101100110111 )
b101100110111 +
b101100110111 6
b101111111111111110110100 8
b10111111111111111011010 7
1$
#2000000
0$
#2010000
1*
1!
b101110010 (
b101110010 9
b100110000111 )
b100110000111 +
b100110000111 6
b110011001100110010000000 8
b11001100110011001000000 7
1$
#2020000
0$
#2030000
b11 0
0!
0*
b101100101 (
b101100101 9
b11111000101 )
b11111000101 +
b11111000101 6
b110110011001100101001100 8
b11011001100110010100110 7
1$
#2040000
0$
#2050000
1*
1!
b10000101 (
b10000101 9
b11011001101 )
b11011001101 +
b11011001101 6
b111001100110011000011000 8
b11100110011001100001100 7
1$
#2060000
0$
#2070000
b10 0
0!
0*
b11000 (
b11000 9
b11010001011 )
b11010001011 +
b11010001011 6
b111100110011001011100100 8
b11110011001100101110010 7
1$
#2080000
0$
#2090000
1*
0"
1!
b1010111110 (
b1010111110 9
b11100001000 )
b11100001000 +
b11100001000 6
b111111111111111110110000 8
b11111111111111111011000 7
1$
#2100000
0$
#2110000
b1 0
0!
0*
b11111111111 (
b11111111111 9
b11111101010 )
b11111101010 +
b11111101010 6
b11001100110001111100 8
b100001100110011000111110 7
1$
#2120000
0$
#2130000
1*
1"
1!
b110101000000 (
b110101000000 9
b100011110110 )
b100011110110 +
b100011110110 6
b110011001100101001000 8
b100011001100110010100100 7
1$
#2140000
0$
#2150000
b0 0
0!
0*
b111111100110 (
b111111100110 9
b100101110011 )
b100101110011 +
b100101110011 6
b1001100110011000010100 8
b100100110011001100001010 7
1$
#2160000
0$
#2170000
1*
0"
1!
b111101111001 (
b111101111001 9
b100100110001 )
b100100110001 +
b100100110001 6
b1100110011001011100000 8
b100110011001100101110000 7
1$
#2180000
0$
#2190000
b10 2
0!
0*
b111010011001 (
b111010011001 9
b100000111001 )
b100000111001 +
b100000111001 6
b1111111111111110101100 8
b100111111111111111010110 7
1$
#2200000
0$
#2210000
1*
b0 2
1'
1#
b111010001100 (
b111010001100 9
b11010111110 )
b11010111110 +
b11010111110 6
b10011001100110001111000 8
b101001100110011000111100 7
1$
#2220000
0$
#2230000
b1 2
b1111 0
0#
b11011010111110 1
0'
b110111101101 (
b110111101101 9
b10011000111 )
b10011000111 +
b10011000111 6
b10110011001100101000100 8
b101011001100110010100010 7
1$
#2240000
0$
#2250000
0*
1!
b101100110111 (
b101100110111 9
b1101000111 )
b1101000111 +
b1101000111 6
b11001100110011000010000 8
b101100110011001100001000 7
1$
#2260000
0$
#2270000
b1110 0
0!
1*
b11111000101 (
b11111000101 9
b1000010001 )
b1000010001 +
b1000010001 6
b11100110011001011011100 8
b101110011001100101101110 7
1$
#2280000
0$
#2290000
0*
1!
b11010001011 (
b11010001011 9
b110010001 )
b110010001 +
b110010001 6
b11111111111111110101000 8
b101111111111111111010100 7
1$
#2300000
0$
#2310000
b1101 0
0!
1*
b11111101010 (
b11111101010 9
b101110010 )
b101110010 +
b101110010 6
b100011001100110001110100 8
b110001100110011000111010 7
1$
#2320000
0$
#2330000
0*
1"
1!
b100101110011 (
b100101110011 9
b101111010 )
b101111010 +
b101111010 6
b100110011001100101000000 8
b110011001100110010100000 7
1$
#2340000
0$
#2350000
b1100 0
0!
1*
b100000111001 (
b100000111001 9
b101100101 )
b101100101 +
b101100101 6
b101001100110011000001100 8
b110100110011001100000110 7
1$
#2360000
0$
#2370000
0*
1!
b10011000111 (
b10011000111 9
b100000101 )
b100000101 +
b100000101 6
b101100110011001011011000 8
b110110011001100101101100 7
1$
#2380000
0$
#2390000
b1011 0
0!
1*
b1000010001 (
b1000010001 9
b10000101 )
b10000101 +
b10000101 6
b101111111111111110100100 8
b110111111111111111010010 7
1$
#2400000
0$
#2410000
0*
0"
1!
b101110010 (
b101110010 9
b11000 )
b11000 +
b11000 6
b110011001100110001110000 8
b111001100110011000111000 7
1$
#2420000
0$
#2430000
b1010 0
0!
1*
b101100101 (
b101100101 9
b110110011001100100111100 8
b111011001100110010011110 7
1$
#2440000
0$
#2450000
0*
1"
1!
b10000101 (
b10000101 9
b11010110 )
b11010110 +
b11010110 6
b111001100110011000001000 8
b111100110011001100000100 7
1$
#2460000
0$
#2470000
b1001 0
0!
1*
b11000 (
b11000 9
b1010111110 )
b1010111110 +
b1010111110 6
b111100110011001011010100 8
b111110011001100101101010 7
1$
#2480000
0$
#2490000
0*
1!
b1010111110 (
b1010111110 9
b10100101010 )
b10100101010 +
b10100101010 6
b111111111111111110100000 8
b111111111111111111010000 7
1$
#2500000
0$
#2510000
b1000 0
0!
1*
b11111111111 (
b11111111111 9
b11111111111 )
b11111111111 +
b11111111111 6
b11001100110001101100 8
b1100110011000110110 7
1$
#2520000
0$
#2530000
0*
0"
1!
b110101000000 (
b110101000000 9
b101011010100 )
b101011010100 +
b101011010100 6
b110011001100100111000 8
b11001100110010011100 7
1$
#2540000
0$
#2550000
b111 0
0!
1*
b111111100110 (
b111111100110 9
b110101000000 )
b110101000000 +
b110101000000 6
b1001100110011000000100 8
b100110011001100000010 7
1$
#2560000
0$
#2570000
0*
1"
1!
b111101111001 (
b111101111001 9
b111100101000 )
b111100101000 +
b111100101000 6
b1100110011001011010000 8
b110011001100101101000 7
1$
#2580000
0$
#2590000
b110 0
0!
1*
b111010011001 (
b111010011001 9
b111111100110 )
b111111100110 +
b111111100110 6
b1111111111111110011100 8
b111111111111111001110 7
1$
#2600000
0$
#2610000
0*
0"
1!
b111010001100 (
b111010001100 9
b111111110001 )
b111111110001 +
b111111110001 6
b10011001100110001101000 8
b1001100110011000110100 7
1$
#2620000
0$
#2630000
b101 0
0!
1*
b110111101101 (
b110111101101 9
b111101111001 )
b111101111001 +
b111101111001 6
b10110011001100100110100 8
b1011001100110010011010 7
1$
#2640000
0$
#2650000
0*
1"
1!
b101100110111 (
b101100110111 9
b111011111001 )
b111011111001 +
b111011111001 6
b11001100110011000000000 8
b1100110011001100000000 7
1$
#2660000
0$
#2670000
b100 0
0!
1*
b11111000101 (
b11111000101 9
b111010011001 )
b111010011001 +
b111010011001 6
b11100110011001011001100 8
b1110011001100101100110 7
1$
#2680000
0$
#2690000
0*
1!
b11010001011 (
b11010001011 9
b111010000100 )
b111010000100 +
b111010000100 6
b11111111111111110011000 8
b1111111111111111001100 7
1$
#2700000
0$
#2710000
b11 0
0!
1*
b11111101010 (
b11111101010 9
b111010001100 )
b111010001100 +
b111010001100 6
b100011001100110001100100 8
b10001100110011000110010 7
1$
#2720000
0$
#2730000
0*
1!
b100101110011 (
b100101110011 9
b111001101101 )
b111001101101 +
b111001101101 6
b100110011001100100110000 8
b10011001100110010011000 7
1$
#2740000
0$
#2750000
b10 0
0!
1*
b100000111001 (
b100000111001 9
b110111101101 )
b110111101101 +
b110111101101 6
b101001100110010111111100 8
b10100110011001011111110 7
1$
#2760000
0$
#2770000
0*
1!
b10011000111 (
b10011000111 9
b110010110111 )
b110010110111 +
b110010110111 6
b101100110011001011001000 8
b10110011001100101100100 7
1$
#2780000
0$
#2790000
b1 0
0!
1*
b1000010001 (
b1000010001 9
b101100110111 )
b101100110111 +
b101100110111 6
b101111111111111110010100 8
b10111111111111111001010 7
1$
#2800000
0$
#2810000
0*
1!
b101110010 (
b101110010 9
b100110000111 )
b100110000111 +
b100110000111 6
b110011001100110001100000 8
b11001100110011000110000 7
1$
#2820000
0$
#2830000
b0 0
0!
1*
b101100101 (
b101100101 9
b11111000101 )
b11111000101 +
b11111000101 6
b110110011001100100101100 8
b11011001100110010010110 7
1$
#2840000
0$
#2850000
0*
0"
1!
b10000101 (
b10000101 9
b11011001101 )
b11011001101 +
b11011001101 6
b111001100110010111111000 8
b11100110011001011111100 7
1$
#2860000
0$
#2870000
b10 2
0!
1*
b11000 (
b11000 9
b11010001011 )
b11010001011 +
b11010001011 6
b111100110011001011000100 8
b11110011001100101100010 7
1$
#2880000
0$
#2890000
0*
b0 2
1'
1#
b1010111110 (
b1010111110 9
b11100001000 )
b11100001000 +
b11100001000 6
b111111111111111110010000 8
b11111111111111111001000 7
1$
#2900000
0$
#2910000
0'
1*
b11111111111 (
b11111111111 9
b11111101010 )
b11111101010 +
b11111101010 6
b11001100110001011100 8
b100001100110011000101110 7
1$
#2920000
0$
#2930000
0*
b1 2
b1111 0
0#
b11011111101010 1
b110101000000 (
b110101000000 9
b100011110110 )
b100011110110 +
b100011110110 6
b110011001100100101000 8
b100011001100110010010100 7
1$
#2940000
0$
#2950000
1!
1*
b111111100110 (
b111111100110 9
b100101110011 )
b100101110011 +
b100101110011 6
b1001100110010111110100 8
b100100110011001011111010 7
1$
#2960000
0$
#2970000
0*
b1110 0
0!
b111101111001 (
b111101111001 9
b100100110001 )
b100100110001 +
b100100110001 6
b1100110011001011000000 8
b100110011001100101100000 7
1$
#2980000
0$
#2990000
1!
1*
b111010011001 (
b111010011001 9
b100000111001 )
b100000111001 +
b100000111001 6
b1111111111111110001100 8
b100111111111111111000110 7
1$
#3000000
0$
#3010000
0*
b1101 0
0!
b111010001100 (
b111010001100 9
b11010111110 )
b11010111110 +
b11010111110 6
b10011001100110001011000 8
b101001100110011000101100 7
1$
#3020000
0$
#3030000
1"
1!
1*
b110111101101 (
b110111101101 9
b10011000111 )
b10011000111 +
b10011000111 6
b10110011001100100100100 8
b101011001100110010010010 7
1$
#3040000
0$
#3050000
0*
b1100 0
0!
b101100110111 (
b101100110111 9
b1101000111 )
b1101000111 +
b1101000111 6
b11001100110010111110000 8
b101100110011001011111000 7
1$
#3060000
0$
#3070000
1!
1*
b11111000101 (
b11111000101 9
b1000010001 )
b1000010001 +
b1000010001 6
b11100110011001010111100 8
b101110011001100101011110 7
1$
#3080000
0$
#3090000
0*
b1011 0
0!
b11010001011 (
b11010001011 9
b110010001 )
b110010001 +
b110010001 6
b11111111111111110001000 8
b101111111111111111000100 7
1$
#3100000
0$
#3110000
0"
1!
1*
b11111101010 (
b11111101010 9
b101110010 )
b101110010 +
b101110010 6
b100011001100110001010100 8
b110001100110011000101010 7
1$
#3120000
0$
#3130000
0*
b1010 0
0!
b100101110011 (
b100101110011 9
b101111010 )
b101111010 +
b101111010 6
b100110011001100100100000 8
b110011001100110010010000 7
1$
#3140000
0$
#3150000
1"
1!
1*
b100000111001 (
b100000111001 9
b101100101 )
b101100101 +
b101100101 6
b101001100110010111101100 8
b110100110011001011110110 7
1$
#3160000
0$
#3170000
0*
b1001 0
0!
b10011000111 (
b10011000111 9
b100000101 )
b100000101 +
b100000101 6
b101100110011001010111000 8
b110110011001100101011100 7
1$
#3180000
0$
#3190000
1!
1*
b1000010001 (
b1000010001 9
b10000101 )
b10000101 +
b10000101 6
b101111111111111110000100 8
b110111111111111111000010 7
1$
#3200000
0$
#3210000
0*
b1000 0
0!
b101110010 (
b101110010 9
b11000 )
b11000 +
b11000 6
b110011001100110001010000 8
b111001100110011000101000 7
1$
#3220000
0$
#3230000
1!
1*
b101100101 (
b101100101 9
b110110011001100100011100 8
b111011001100110010001110 7
1$
#3240000
0$
#3250000
0*
b111 0
0!
b10000101 (
b10000101 9
b11010110 )
b11010110 +
b11010110 6
b111001100110010111101000 8
b111100110011001011110100 7
1$
#3260000
0$
#3270000
1!
1*
b11000 (
b11000 9
b1010111110 )
b1010111110 +
b1010111110 6
b111100110011001010110100 8
b111110011001100101011010 7
1$
#3280000
0$
